final project
…
library(forcats)
fastfood1 <- fastfood |> 
  arrange(desc(calories)) |>
   mutate(cal_rank =
                          case_when(calories >= 800 ~ "high",
                                    calories < 800 & calories >= 300  ~ "medium",
                                    calories > 300 & calories >= 0 ~ "low")) 

comparing calories and transfat

cals_v_transfat <- fastfood |>
  select(calories, trans_fat, restaurant)
cals_v_transfat

# A tibble: 515 × 3
   calories trans_fat restaurant
      <dbl>     <dbl> <chr>     
 1      380       0   Mcdonalds 
 2      840       1.5 Mcdonalds 
 3     1130       3   Mcdonalds 
 4      750       0.5 Mcdonalds 
 5      920       0.5 Mcdonalds 
 6      540       1   Mcdonalds 
 7      300       0.5 Mcdonalds 
 8      510       0   Mcdonalds 
 9      430       1   Mcdonalds 
10      770       2.5 Mcdonalds 
# … with 505 more rows
…
